{
	"id" : "wheel",
	"title" : "examchapter_wheel",
	
	"questions" : [
		
		
		
		
		
		/* new */
		{
			"text" : "question_wheel_2b",
			"items_tpl" : "type_radio",
			"items" : ["ec07de9o", {
					
					"text" : "ec07y47t",
					"items_tpl": {
						"type" : "checkbox",
						"items_tpl" : {
							"type" : "checkbox",
							"items_tpl" : "type_radio",
							"items" : ["ec07nfvc", "ec07a46i"]
						},
						
						"items" : ["ec07zm80", "ec07vtb0"]
					},
					
					"items" : ["ec070jej", "ec07akzt", "ec0715au", "ec07jpdx"]
				}
			]
		},
		
		
		
		
		 
		{
			"text" : "ec07dqmi",
			"items_tpl" : {
				"type" : "label",
				"items" : [
					{
						"type" : "picture",
						"text" : "ec04vo0b"   
					}
				]
			},
			"items" : ["question_wheel_fl_0", "question_wheel_bl_0", "question_wheel_br_0", "question_wheel_fr_0"]
		},
		 
		 
		
		{
			"text" : "ec07ts1e",
			
			"items_tpl" : "type_radio",
			"items" : ["ec06s20g",{
					"text" : "ec06j9rm",
					"items_tpl" : {
						"type" : "checkbox",
						"items_tpl" : "type_cb_pic",
						"items" : ["ec06hnen", "ec07eywe", "ec07dtgk", "ec071te8", "ec079ztn", "ec072skq", "ec07a889", {
							"text" : "ec07arwf",
							"items" : ""
						}]
					},
					
					"items" : ["question_wheel_fl_1", "question_wheel_bl_1", "question_wheel_br_1", "question_wheel_fr_1"]
					
				}
			]
			
		},
		
		
		
		{
			"text" : "ec07ahg3",
			"items_tpl" : {
				"type" : "label",
				"items_tpl" : "type_radio",
				"items" : ["ec07e1ub",{
					"text" : "ec07dl5l",
					"items" : [
						{
							"type" : "number",
							"text" : "ec073dm2"
						}
					]
				},	
				"ec07bqrw", "ec07hh41"]
			},
			
			"items" : ["question_wheel_fl_1", "question_wheel_bl_1", "question_wheel_br_1", "question_wheel_fr_1"]
			
			
		},
		
		
		
		
		
		
		
		
		
		{
			"text" : "ec075638",
			
			"items_tpl" : "type_radio",
			"items" : ["ec06s20g",{
					"text" : "ec06j9rm",
					"items_tpl" : {
						"type" : "checkbox",
						"items_tpl" : "type_cb",
						
						"items" : [{
							"text" : "ec07n8h3",
							"items_tpl" : "type_cb",
							"items" : [{
								"text" : "ec06nc4g",
								"tpl" : "type_cb_pic"
							}, 
							{
								"text" : "ec06kang",
								"tpl" : "type_cb_pic"
							}, "ec06w5yz", {
								"text" : "ec0729ia",
								"tpl" : "type_cb_pic"
								
							}, "ec11nsgh", 
							{
								"text" : "ec04iznn",
								"tpl" : "type_cb_pic"
							}, 
							{
								"text" : "ec04suzm",
								"tpl" : "type_cb_pic"
							}, {
								"text" : "ec041e7q",
								"tpl" : "type_cb_pic"
								}]
						}, {
							"text" : "ec07gls7",
							"items_tpl" : "type_cb",
							"items" : ["ec06w5yz", {"text" : "ec07obeb", "tpl" : "type_cb_pic"}, "ec11nsgh", {"text" : "ec075p63", "tpl" : "type_cb_pic"}]
						}, {
							"text" : "ec076mml",
							"items_tpl" : "type_cb_pic",
							"req" : false,
							"items" : ["ec07k01m", {
								"text" : "ec04j7su",
								"items" : ""
							}]
						}, {
							"text" : "ec046bjv",
							"items_tpl" : "type_cb_pic",
							"req" : false,
							"items" : ["ec07k01m"]
						}, {
							"text" : "ec07karo",
							"items_tpl" : "type_cb_pic",
							"items" : [{
								"text" : "ec04j7su",
								"items" : ""
							}, "ec05hw4k", "ec11u5b6", "ec07ma8c"]
						}, 
						{
							"text" : "ec07854a",
							"items_tpl" : "type_cb_pic",
							"items" : ["ec04z3a3"]
						},
						{
							"text" : "ec04d8zu",
							"items_tpl" : "type_cb_pic",
							"items" : ["ec04z3a3"]
						},
						{
							"text" : "ec07gntk",
							"items_tpl" : "type_cb_pic",
							"items" : ["ec0729ia", "ec05hw4k", "ec11u5b6", "ec07ma8c"]
						},
						{
							"text" : "ec074sfa",
							"items_tpl" : "type_cb_pic",
							"items" : [{
								"text" : "ec04j7su",
								"items" : ""
							}, "ec06qbko", "ec11u5b6", "ec07ma8c"]
						},
						{
							"text" : "ec04gyh3",
							"items_tpl" : "type_cb_pic",
							"items" : ["ec0729ia", "ec05hw4k", "ec11u5b6", "ec07ma8c"]
						},
						{
							"text" : "ec04iirg",
							"items_tpl" : "type_cb_pic",
							"items" : ["ec04z3a3"]
						}

						
						
						]
					},
					
					"items" : ["ec39oooo", "ec390wv7", "ec39bq28", "ec39altb"]
					
				}
			]
			
		},



		{
			"text" : "ec04tz4a",
			"items_tpl" : "type_radio",
			"items" : ["ec06s20g",{
					"text" : "ec06j9rm",
					"items_tpl" : "type_cb",
					
					"items" : [{
							"text" : "ec04lirg",
							"items_tpl" : "type_cb_pic",
							"items" : ["ec04b9q0", "ec11u5b6", "ec07ma8c", {
								"text" : "ec06nc4g",
								"items" : ""
							}]
						},
						{
							"text" : "ec04kujp",
							"items_tpl" : {
								"type" : "checkbox",
								"items_tpl" : "type_cb_pic",
								"items" : ["ec07k01m"]
							},
							"items" : ["ec04sml9", "ec04cib4"]
						},
						{
							"text" : "ec04cpm8",
							"items_tpl" : {
								"type" : "checkbox",
								"items_tpl" : "type_cb_pic",
								"items" : ["ec07k01m"]
							},
							"items" : ["ec04sml9", "ec04cib4"]
						},
						{
							"text" : "ec04eyt2",
							"items_tpl" : {
								"type" : "checkbox",
								"items_tpl" : "type_cb_pic",
								"items" : [{
									"text" : "ec04j7su",
									"items" : ""
								}, "ec05hw4k", "ec11u5b6", "ec07ma8c"]
							},
							"items" : ["ec04sml9", "ec04cib4"]
						}
						
						
						
					]
				
				}
			]
			
		},
		
		
		
		
		
		
		{
			"text" : "ec04e1vi",
			"items_tpl" : "type_radio",
			"items" : ["ec06s20g",{
					"text" : "ec06j9rm",
					"items_tpl" : {
						"type" : "checkbox",
						"items_tpl" : "type_cb_pic",
						"items" : ["ec07k01m"]
					},
					
					"items" : ["ec047np0", "ec04b9xe", "ec04py70", "ec045ytd", "ec04pn1a", "ec04mb59", "ec04h7st", "ec04x7yq"]
				
				}
			]
			
		}
		
		
		
	]
}