{
	"id" : "startengine",
	"title" : "examchapter_startengine",
	
	"questions" : [
		
		
		
		
		/* column F */
		{
			"text" : "question_startengine_1",
			"items_tpl" : "type_radio",
			"items" : ["ec26sdg6",{
					"text" : "ec387z2g",
					"items_tpl" : "type_radio",
					"items" : ["ec38lehe", "ec38goxt"]
				},
			"ec38rf32", {
				"text" : "ec04q35q",
				"items_tpl" : "type_radio",
				"items" : ["ec04o1yv", {
					"text" : "ec0463nh",
					"skip_c" : ["essais_routier"], 
					"skip" : ["ec01s0le", "question_startengine_2", "question_startengine_3", "question_startengine_4", "question_startengine_5", "question_startengine_6", 
						"question_startengine_7", "question_startengine_7b", "question_startengine_8", "question_startengine_9", "question_startengine_10"]
				}]
			}]
		},
		
		
		
		{
			"text" : "ec01s0le",
			"items_tpl" : "type_radio",
			"items" : ["ec01ty19", {
				"text" : "ec010pyl",
				"items_tpl" : "type_cb",
				"items" : ["ec01ja32", "ec01vmt6", "ec01of9u", "ec01g5g8", "ec01mu7b", "ec01bcgp", "ec01c0og"]
			}]
			
		},
		
		
		
		/* column I */
		{
			"text" : "question_startengine_2",
			"items_tpl" : "type_radio",
			"items" : ["ec38zr7z",{
					"text" : "ec38290x",
					"items_tpl" : {
						"type" : "checkbox"
					},
					"items" : [{
						"type" : "picture",
						"text" : "ec04escq"
					
					}]
				}
			]
		},
		
		
		
		
		
		
		/* column AN -*/
		{
			"text" : "question_essais_routier_16",
			"items_tpl" : "type_radio",
			"items" : ["ec04mkre",{
					"text" : "ec04365g",
					"items_tpl" : "type_radio",
					"items" : ["ec04htvz", "ec04unna"]
				},
			"ec04975g"]
		},
		
		
		
		/* column P */
		{
			"text" : "question_startengine_5",
			"items_tpl" : "type_radio",
			"items" : ["ec04mkre", "ec38hx51"]
		},
		
		
		
		/* column R */
		{
			"text" : "question_startengine_6",
			"items_tpl" : "type_radio",
			"items" : ["ec04mkre",{
					"text" : "ec04365g",
					"items_tpl" : "type_cb",
					"items" : ["ec04c34m"]
				},
			"ec051wjg", "ec04975g"]
		},
		
		
		
		/* column U */
		{
			"text" : "question_startengine_7",
			"sub" : "ec38e9ok",
			"items_tpl" : "type_radio",
			"items" : ["ec04mkre",{
					"text" : "ec04365g",
					"items_tpl" : "type_cb",
					"items" : ["ec38ffco", "ec38i7cr", "ec385oym", "ec389eun", "ec38cj8n"]
				}
			]
		},
		
		
		
		/* new */
		{
			"text" : "question_startengine_7b",
			"items_tpl" : "type_radio",
			"items" : ["ec38d9lf", "ec380cv8", "ec04htvz", "ec38mgq5"]
		},
		
		
		
		
		
		/* column Y */
		{
			"text" : "question_startengine_9",
			"items_tpl" : "type_radio",
			"items" : ["ec38htk1",{
					"text" : "ec381w5c",
					"items_tpl" : "type_cb",
					"items" : ["ec387jm2", "ec38lxk9", "ec04xx8a"]
				}
			]
		}
		
		
		
		
	]
}