<?xml version="1.0" standalone="no"?>
<!DOCTYPE svg PUBLIC "-//W3C//DTD SVG 1.1//EN" "http://www.w3.org/Graphics/SVG/1.1/DTD/svg11.dtd" >
<svg xmlns="http://www.w3.org/2000/svg">
<metadata></metadata>
<defs>
<font id="DejaVuSansBook" horiz-adv-x="1303" >
<font-face units-per-em="2048" ascent="1556" descent="-492" />
<missing-glyph horiz-adv-x="651" />
<glyph unicode="&#xfb01;" horiz-adv-x="1290" d="M47 977v143h176v78q0 183 86.5 270.5t265.5 87.5h185v-153h-176q-99 0 -137.5 -40t-38.5 -144v-99h690v-1120h-185v977h-505v-977h-185v977h-176zM913 1321v233h185v-233h-185z" />
<glyph unicode="&#xfb02;" horiz-adv-x="1290" d="M47 977v143h176v78q0 187 87 272.5t276 85.5h512v-1556h-185v1403h-329q-99 0 -137.5 -40t-38.5 -144v-99h303v-143h-303v-977h-185v977h-176z" />
<glyph unicode="&#xfb03;" horiz-adv-x="1980" d="M47 977v143h176v78q0 187 87 272.5t276 85.5h174v-153h-176q-99 0 -138 -40q-38 -40 -38 -144v-99h505v78q0 187 87 272q28 28 67 47q78 39 209 39h174v-153h-176q-99 0 -137.5 -40t-38.5 -144v-99h690v-1120h-185v977h-505v-977h-185v977h-505v-977h-185v977h-176z M1603 1321v233h185v-233h-185z" />
<glyph unicode="&#xfb04;" horiz-adv-x="1980" d="M47 977v143h176v78q0 187 87 272.5t276 85.5h174v-153h-176q-99 0 -138 -40q-38 -40 -38 -144v-99h505v78q0 187 87 272.5t276 85.5h512v-1556h-185v1403h-329q-99 0 -137.5 -40t-38.5 -144v-99h303v-143h-303v-977h-185v977h-505v-977h-185v977h-176z" />
<glyph horiz-adv-x="0" />
<glyph horiz-adv-x="2048" />
<glyph unicode=" "  horiz-adv-x="651" />
<glyph unicode="&#x09;" horiz-adv-x="651" />
<glyph unicode="&#xa0;" horiz-adv-x="651" />
<glyph unicode="!" horiz-adv-x="821" d="M309 0v254h203v-254h-203zM309 838v655h203v-655l-20 -357h-162z" />
<glyph unicode="&#x22;" horiz-adv-x="942" d="M197 938v555h170v-555h-170zM575 938v555h170v-555h-170z" />
<glyph unicode="#" horiz-adv-x="1716" d="M158 414v153h352l84 334h-322v154h361l102 415h162l-104 -415h292l105 415h160l-103 -415h312v-154h-351l-82 -334h318v-153h-357l-104 -414h-160l103 414h-293l-103 -414h-161l104 414h-315zM672 567h293l82 334h-291z" />
<glyph unicode="$" d="M170 92v180q102 -64 206.5 -96.5t215.5 -33.5v456q-221 36 -321.5 122t-100.5 236q0 163 109 257t313 108v235h100v-232q93 -4 180 -19.5t170 -42.5v-175q-83 42 -170.5 65t-179.5 27v-427q227 -35 334 -125t107 -246q0 -169 -113.5 -266.5t-327.5 -112.5v-303h-100 l-1 301q-105 2 -210 24.5t-211 67.5zM354 973q0 -86 56.5 -134t181.5 -69v410q-116 -13 -177 -66t-61 -141zM692 145q127 17 191.5 72t64.5 145q0 88 -61.5 140t-194.5 76v-433z" />
<glyph unicode="%" horiz-adv-x="1946" d="M113 1114q0 186 93 296t251 110t252 -109.5t94 -296.5q0 -189 -93.5 -298t-252.5 -109t-251.5 109.5t-92.5 297.5zM272 1114q0 -132 49 -206t136 -74t136.5 74t49.5 206q0 129 -50 204t-136 75t-135.5 -74.5t-49.5 -204.5zM426 -29l934 1549h160l-934 -1549h-160z M1143 377q0 188 93.5 297.5t252.5 109.5q158 0 251 -110t93 -297t-93.5 -296.5t-250.5 -109.5q-160 0 -253 109.5t-93 296.5zM1303 377q0 -130 49.5 -204.5t136.5 -74.5q85 0 134.5 74.5t49.5 204.5q0 131 -49.5 205.5t-134.5 74.5q-87 0 -136.5 -74t-49.5 -206z" />
<glyph unicode="&#x26;" horiz-adv-x="1597" d="M129 461q0 128 67 240.5t201 211.5q-48 63 -73 125.5t-25 122.5q0 162 111 260.5t295 98.5q83 0 165.5 -18t167.5 -54v-182q-87 47 -166 71.5t-147 24.5q-105 0 -170.5 -55.5t-65.5 -143.5q0 -51 29.5 -102.5t120.5 -145.5l508 -520q59 89 92 190.5t39 215.5h186 q-12 -132 -64 -261t-145 -255l279 -285h-252l-143 147q-104 -89 -218 -132.5t-245 -43.5q-241 0 -394 137.5t-153 352.5zM322 473q0 -146 106 -243t266 -97q95 0 178 31.5t156 95.5l-530 543q-91 -81 -133.5 -161.5t-42.5 -168.5z" />
<glyph unicode="'" horiz-adv-x="563" d="M197 938v555h170v-555h-170z" />
<glyph unicode="(" horiz-adv-x="799" d="M176 643q0 223 74 449t225 462h160q-134 -230 -199 -455t-65 -456t65.5 -457.5t198.5 -455.5h-160q-150 235 -224.5 462t-74.5 451z" />
<glyph unicode=")" horiz-adv-x="799" d="M164 -270q133 229 198.5 455.5t65.5 457.5t-65.5 456t-198.5 455h160q150 -236 224.5 -462t74.5 -449q0 -224 -74.5 -451t-224.5 -462h-160z" />
<glyph unicode="*" horiz-adv-x="1024" d="M61 858l359 195l-359 194l58 99l336 -203v377h114v-377l336 203l58 -99l-359 -194l359 -195l-58 -98l-336 203v-377h-114v377l-336 -203z" />
<glyph unicode="+" horiz-adv-x="1716" d="M217 557v170h557v557h168v-557h557v-170h-557v-557h-168v557h-557z" />
<glyph unicode="," horiz-adv-x="651" d="M158 -238l82 320v172h211v-172l-164 -320h-129z" />
<glyph unicode="-" horiz-adv-x="739" d="M100 479v164h539v-164h-539z" />
<glyph unicode="." horiz-adv-x="651" d="M219 0v254h211v-254h-211z" />
<glyph unicode="/" horiz-adv-x="690" d="M0 -190l520 1683h170l-520 -1683h-170z" />
<glyph unicode="0" d="M135 745q0 378 132.5 576.5t383.5 198.5t383.5 -198.5t132.5 -576.5q0 -377 -132.5 -575.5t-383.5 -198.5t-383.5 198.5t-132.5 575.5zM338 745q0 -307 78.5 -460.5t234.5 -153.5q157 0 235.5 153.5t78.5 460.5q0 308 -78.5 461.5t-235.5 153.5q-156 0 -234.5 -153.5 t-78.5 -461.5z" />
<glyph unicode="1" d="M225 1237v184l357 72h202v-1323h330v-170h-860v170h330v1139z" />
<glyph unicode="2" d="M150 0v170q115 119 313.5 319.5t249.5 258.5q97 109 135.5 184.5t38.5 148.5q0 119 -83.5 194t-217.5 75q-95 0 -200.5 -33t-225.5 -100v204q122 49 228 74t194 25q232 0 370 -116t138 -310q0 -92 -34.5 -174.5t-125.5 -194.5q-25 -29 -159 -167.5t-378 -387.5h705v-170 h-948z" />
<glyph unicode="3" d="M156 45v195q84 -49 184 -74t209 -25q190 0 289.5 75t99.5 218q0 132 -92.5 206.5t-257.5 74.5h-174v166h182q149 0 228 59.5t79 171.5q0 115 -81.5 176.5t-233.5 61.5q-83 0 -178 -18t-209 -56v180q115 32 215.5 48t189.5 16q230 0 364 -104.5t134 -282.5 q0 -124 -71 -209.5t-202 -118.5q145 -31 226.5 -129t81.5 -242q0 -221 -152 -342t-432 -121q-94 0 -193.5 18.5t-205.5 55.5z" />
<glyph unicode="4" d="M100 352v195l621 946h254v-973h213v-168h-213v-352h-201v352h-674zM264 520h510v797z" />
<glyph unicode="5" d="M158 35v203q90 -49 186 -73t203 -24q173 0 274 91t101 247t-101 247t-274 91q-81 0 -161.5 -18t-164.5 -56v750h793v-170h-608v-366q44 15 88 22.5t88 7.5q250 0 396 -137t146 -371q0 -241 -150 -374.5t-423 -133.5q-94 0 -191.5 16t-201.5 48z" />
<glyph unicode="6" d="M143 745q0 354 168 564.5t451 210.5q76 0 153.5 -15t161.5 -45v-184q-76 36 -153.5 55t-153.5 19q-200 0 -305.5 -135t-120.5 -408q59 87 148 133.5t196 46.5q225 0 355.5 -136.5t130.5 -371.5q0 -230 -136 -369t-362 -139q-259 0 -396 198.5t-137 575.5zM381 479 q0 -161 79.5 -254.5t215.5 -93.5t215.5 93.5t79.5 254.5q0 162 -79.5 255t-215.5 93t-215.5 -93t-79.5 -255z" />
<glyph unicode="7" d="M168 1323v170h960v-86l-542 -1407h-211l510 1323h-717z" />
<glyph unicode="8" d="M139 420q0 143 82 242t228 133q-130 32 -202.5 121t-72.5 217q0 179 127.5 283t349.5 104q223 0 350 -104t127 -283q0 -128 -72.5 -217t-201.5 -121q146 -34 227.5 -133t81.5 -242q0 -217 -132.5 -333t-379.5 -116t-379.5 116t-132.5 333zM342 420q0 -135 82.5 -212 t226.5 -77t227 77.5t83 211.5q0 135 -82.5 212t-227.5 77q-144 0 -226.5 -77t-82.5 -212zM375 1114q0 -116 72.5 -181t203.5 -65q130 0 203.5 65t73.5 181t-73.5 181t-203.5 65q-131 0 -203.5 -65t-72.5 -181z" />
<glyph unicode="9" d="M129 1012q0 230 136 369t362 139q259 0 395.5 -198.5t136.5 -576.5q0 -353 -167.5 -563.5t-450.5 -210.5q-76 0 -154 15t-162 45v184q76 -36 154 -55t153 -19q200 0 305.5 134.5t120.5 408.5q-58 -86 -147 -132t-197 -46q-224 0 -354.5 135.5t-130.5 370.5zM332 1012 q0 -162 79.5 -255t215.5 -93t215.5 93t79.5 255q0 161 -79.5 254.5t-215.5 93.5t-215.5 -93.5t-79.5 -254.5z" />
<glyph unicode=":" horiz-adv-x="690" d="M240 0v254h211v-254h-211zM240 805v254h211v-254h-211z" />
<glyph unicode=";" horiz-adv-x="690" d="M158 -238l82 320v172h211v-172l-164 -320h-129zM240 805v254h211v-254h-211z" />
<glyph unicode="&#x3c;" horiz-adv-x="1716" d="M217 559v166l1282 465v-182l-1032 -367l1032 -365v-182z" />
<glyph unicode="=" horiz-adv-x="1716" d="M217 352v170h1282v-170h-1282zM217 762v168h1282v-168h-1282z" />
<glyph unicode="&#x3e;" horiz-adv-x="1716" d="M217 94v182l1030 365l-1030 367v182l1282 -465v-166z" />
<glyph unicode="?" horiz-adv-x="1087" d="M147 1219v188q94 57 190.5 85t199.5 28q184 0 295.5 -97t111.5 -256q0 -76 -36 -144.5t-126 -154.5l-88 -86q-47 -47 -66.5 -73.5t-27.5 -51.5q-6 -21 -9 -51t-3 -82v-123h-191v154q0 101 28 166t118 151l90 89q57 53 82.5 100t25.5 96q0 89 -65.5 144t-173.5 55 q-79 0 -168.5 -35t-186.5 -102zM391 0v254h203v-254h-203z" />
<glyph unicode="@" horiz-adv-x="2048" d="M135 543q0 182 68 347t194 290q129 127 298 194.5t358 67.5q212 0 393.5 -87t304.5 -247q75 -98 114.5 -213t39.5 -238q0 -263 -159 -415t-439 -158v154q-60 -77 -137.5 -113.5t-180.5 -36.5q-172 0 -279.5 124.5t-107.5 324.5t108 325t279 125q103 0 181 -37.5 t137 -113.5v131h143v-736q146 22 228.5 133.5t82.5 288.5q0 107 -31.5 201t-95.5 174q-104 131 -253.5 200.5t-325.5 69.5q-123 0 -236 -32.5t-209 -96.5q-157 -102 -245.5 -267.5t-88.5 -358.5q0 -159 57.5 -298t166.5 -245q105 -104 243 -158.5t295 -54.5 q129 0 253.5 43.5t228.5 124.5l90 -111q-125 -97 -272.5 -148.5t-299.5 -51.5q-185 0 -349 65.5t-292 190.5t-195 289.5t-67 353.5zM762 537q0 -143 71 -224.5t195 -81.5q123 0 193.5 82t70.5 224q0 140 -72 222.5t-194 82.5q-121 0 -192.5 -82t-71.5 -223z" />
<glyph unicode="A" horiz-adv-x="1401" d="M16 0l570 1493h229l569 -1493h-210l-136 383h-673l-136 -383h-213zM426 551h549l-275 743z" />
<glyph unicode="B" horiz-adv-x="1405" d="M201 0v1493h516q231 0 356 -96t125 -273q0 -137 -64 -218t-188 -101q149 -32 231.5 -133.5t82.5 -253.5q0 -200 -136 -309t-387 -109h-536zM403 166h324q163 0 241.5 67.5t78.5 206.5q0 140 -78.5 206.5t-241.5 66.5h-324v-547zM403 877h299q148 0 220.5 55.5t72.5 169.5 q0 113 -72.5 169t-220.5 56h-299v-450z" />
<glyph unicode="C" horiz-adv-x="1430" d="M115 745q0 360 195 567.5t534 207.5q134 0 252.5 -35.5t222.5 -106.5v-213q-102 95 -217.5 142t-245.5 47q-256 0 -392 -156.5t-136 -452.5q0 -295 136 -451.5t392 -156.5q130 0 245.5 47t217.5 142v-211q-106 -72 -224.5 -108t-250.5 -36q-339 0 -534 207.5t-195 566.5z " />
<glyph unicode="D" horiz-adv-x="1577" d="M201 0v1493h415q434 0 637 -180.5t203 -564.5q0 -386 -204 -567t-636 -181h-415zM403 166h244q309 0 452.5 140t143.5 442q0 300 -143.5 439.5t-452.5 139.5h-244v-1161z" />
<glyph unicode="E" horiz-adv-x="1294" d="M201 0v1493h944v-170h-742v-442h711v-170h-711v-541h760v-170h-962z" />
<glyph unicode="F" horiz-adv-x="1178" d="M201 0v1493h858v-170h-656v-440h592v-170h-592v-713h-202z" />
<glyph unicode="G" horiz-adv-x="1587" d="M115 745q0 366 197.5 570.5t547.5 204.5q146 0 277.5 -36t242.5 -106v-215q-112 95 -238 143t-265 48q-274 0 -411.5 -153t-137.5 -456q0 -302 137.5 -455t411.5 -153q107 0 191 18.5t151 57.5v401h-330v166h530v-641q-117 -83 -258 -125.5t-301 -42.5 q-350 0 -547.5 204.5t-197.5 569.5z" />
<glyph unicode="H" horiz-adv-x="1540" d="M201 0v1493h202v-612h734v612h202v-1493h-202v711h-734v-711h-202z" />
<glyph unicode="I" horiz-adv-x="604" d="M201 0v1493h202v-1493h-202z" />
<glyph unicode="J" horiz-adv-x="604" d="M-106 -240h63q134 0 189 75t55 269v1389h202v-1389q0 -270 -102.5 -392t-329.5 -122h-77v170z" />
<glyph unicode="K" horiz-adv-x="1343" d="M201 0v1493h202v-631l670 631h260l-741 -696l794 -797h-266l-717 719v-719h-202z" />
<glyph unicode="L" horiz-adv-x="1141" d="M201 0v1493h202v-1323h727v-170h-929z" />
<glyph unicode="M" horiz-adv-x="1767" d="M201 0v1493h301l381 -1016l383 1016h301v-1493h-197v1311l-385 -1024h-203l-385 1024v-1311h-196z" />
<glyph unicode="N" horiz-adv-x="1532" d="M201 0v1493h272l662 -1249v1249h196v-1493h-272l-662 1249v-1249h-196z" />
<glyph unicode="O" horiz-adv-x="1612" d="M115 745q0 354 188.5 564.5t503.5 210.5q314 0 502 -210.5t188 -564.5q0 -353 -188 -563.5t-502 -210.5q-315 0 -503.5 210t-188.5 564zM328 745q0 -282 129.5 -446t349.5 -164t348.5 164t128.5 446q0 283 -128.5 447t-348.5 164t-349.5 -164t-129.5 -447z" />
<glyph unicode="P" horiz-adv-x="1235" d="M201 0v1493h456q251 0 379.5 -113.5t128.5 -332.5q0 -221 -128.5 -334t-379.5 -113h-254v-600h-202zM403 766h254q141 0 218 73t77 208q0 134 -77 207t-218 73h-254v-561z" />
<glyph unicode="Q" horiz-adv-x="1612" d="M115 745q0 354 188.5 564.5t503.5 210.5q314 0 502 -210.5t188 -564.5q0 -260 -104.5 -445t-302.5 -273l266 -291h-244l-221 239q-33 -2 -50.5 -3t-33.5 -1q-315 0 -503.5 210.5t-188.5 563.5zM328 745q0 -282 129.5 -446t349.5 -164t348.5 164t128.5 446 q0 283 -128.5 447t-348.5 164t-349.5 -164t-129.5 -447z" />
<glyph unicode="R" horiz-adv-x="1423" d="M201 0v1493h456q256 0 382 -107t126 -323q0 -141 -65.5 -234t-190.5 -129q65 -22 126.5 -94t123.5 -198l205 -408h-217l-191 383q-74 150 -143.5 199t-189.5 49h-220v-631h-202zM403 797h254q146 0 220.5 67.5t74.5 198.5t-74.5 197.5t-220.5 66.5h-254v-530z" />
<glyph unicode="S" horiz-adv-x="1300" d="M135 1094q0 198 139.5 312t384.5 114q105 0 214 -19t223 -57v-197q-115 55 -217 82t-197 27q-165 0 -254.5 -64t-89.5 -182q0 -99 59.5 -149.5t225.5 -81.5l122 -25q226 -43 333.5 -151.5t107.5 -290.5q0 -217 -145.5 -329t-426.5 -112q-106 0 -225.5 24t-247.5 71v208 q123 -69 241 -104t232 -35q173 0 267 68t94 194q0 110 -67.5 172t-221.5 93l-123 24q-226 45 -327 141t-101 267z" />
<glyph unicode="T" horiz-adv-x="1251" d="M-6 1323v170h1263v-170h-530v-1323h-203v1323h-530z" />
<glyph unicode="U" horiz-adv-x="1499" d="M178 561v932h203v-907q0 -240 87 -345.5t282 -105.5q194 0 281 105.5t87 345.5v907h203v-932q0 -292 -144.5 -441t-426.5 -149q-283 0 -427.5 149t-144.5 441z" />
<glyph unicode="V" horiz-adv-x="1401" d="M16 1493h211l473 -1257l474 1257h210l-569 -1493h-229z" />
<glyph unicode="W" horiz-adv-x="2025" d="M68 1493h204l314 -1262l313 1262h227l314 -1262l313 1262h205l-375 -1493h-254l-315 1296l-318 -1296h-254z" />
<glyph unicode="X" horiz-adv-x="1403" d="M61 0l533 797l-465 696h217l371 -555l373 555h217l-480 -717l512 -776h-217l-420 635l-423 -635h-218z" />
<glyph unicode="Y" horiz-adv-x="1251" d="M-4 1493h217l414 -614l411 614h217l-528 -782v-711h-203v711z" />
<glyph unicode="Z" horiz-adv-x="1403" d="M92 0v154l944 1169h-921v170h1173v-154l-944 -1169h967v-170h-1219z" />
<glyph unicode="[" horiz-adv-x="799" d="M176 -270v1826h424v-143h-240v-1540h240v-143h-424z" />
<glyph unicode="\" horiz-adv-x="690" d="M0 1493h170l520 -1683h-170z" />
<glyph unicode="]" horiz-adv-x="799" d="M199 -127h239v1540h-239v143h424v-1826h-424v143z" />
<glyph unicode="^" horiz-adv-x="1716" d="M217 936l543 557h196l543 -557h-201l-440 395l-440 -395h-201z" />
<glyph unicode="_" horiz-adv-x="1024" d="M-20 -340h1064v-143h-1064v143z" />
<glyph unicode="`" horiz-adv-x="1024" d="M170 1638h197l282 -374h-153z" />
<glyph unicode="a" horiz-adv-x="1255" d="M123 326q0 189 126.5 285t377.5 96h258v18q0 127 -83.5 196.5t-234.5 69.5q-96 0 -187 -23t-175 -69v170q101 39 196 58.5t185 19.5q243 0 363 -126t120 -382v-639h-184v170q-63 -102 -157 -150.5t-230 -48.5q-172 0 -273.5 96.5t-101.5 258.5zM307 338 q0 -98 64.5 -155.5t175.5 -57.5q153 0 245.5 108.5t92.5 288.5v41h-183q-223 0 -309 -51t-86 -174z" />
<glyph unicode="b" horiz-adv-x="1300" d="M186 0v1556h185v-606q58 100 146.5 148.5t211.5 48.5q204 0 331.5 -162t127.5 -426t-127.5 -426t-331.5 -162q-123 0 -211.5 48.5t-146.5 148.5v-168h-185zM371 559q0 -203 83.5 -318.5t229.5 -115.5t229.5 115.5t83.5 318.5t-83.5 318.5t-229.5 115.5t-229.5 -115.5 t-83.5 -318.5z" />
<glyph unicode="c" horiz-adv-x="1126" d="M113 559q0 274 150.5 431t412.5 157q85 0 166 -17.5t157 -52.5v-172q-78 43 -156.5 64.5t-158.5 21.5q-179 0 -278 -113.5t-99 -318.5t99 -318.5t278 -113.5q80 0 158.5 21.5t156.5 64.5v-170q-77 -36 -159.5 -54t-175.5 -18q-253 0 -402 159t-149 429z" />
<glyph unicode="d" horiz-adv-x="1300" d="M113 559q0 264 127.5 426t330.5 162q124 0 212.5 -48.5t146.5 -148.5v606h184v-1556h-184v168q-58 -100 -146.5 -148.5t-212.5 -48.5q-203 0 -330.5 162t-127.5 426zM303 559q0 -203 83.5 -318.5t229.5 -115.5t230 115.5t84 318.5t-84 318.5t-230 115.5t-229.5 -115.5 t-83.5 -318.5z" />
<glyph unicode="e" horiz-adv-x="1260" d="M113 549q0 275 148.5 436.5t400.5 161.5q226 0 357.5 -145.5t131.5 -395.5v-90h-846q12 -190 114.5 -289.5t285.5 -99.5q106 0 205.5 26t197.5 78v-174q-99 -42 -203 -64t-211 -22q-268 0 -424.5 156t-156.5 422zM311 659l656 1q-2 151 -84.5 241t-218.5 90 q-154 0 -246.5 -87t-106.5 -245z" />
<glyph unicode="f" horiz-adv-x="721" d="M47 977v143h176v78q0 187 87 272.5t276 85.5h174v-153h-176q-99 0 -137.5 -40t-38.5 -144v-99h303v-143h-303v-977h-185v977h-176z" />
<glyph unicode="g" horiz-adv-x="1300" d="M113 573q0 260 126 417t332 157q124 0 213 -49t146 -148v170h184v-981q0 -286 -127 -425.5t-389 -139.5q-97 0 -183 14.5t-167 44.5v179q81 -44 160 -65t161 -21q181 0 271 94.5t90 285.5v91q-57 -99 -146 -148t-213 -49q-206 0 -332 157t-126 416zM303 573 q0 -199 82.5 -309t230.5 -110q149 0 231.5 110t82.5 309q0 200 -82.5 310t-231.5 110q-148 0 -230.5 -110t-82.5 -310z" />
<glyph unicode="h" horiz-adv-x="1298" d="M186 0v1556h185v-610q66 101 155.5 151t206.5 50q193 0 292 -119.5t99 -351.5v-676h-184v670q0 159 -62 238t-186 79q-149 0 -235 -95t-86 -259v-633h-185z" />
<glyph unicode="i" horiz-adv-x="569" d="M193 0v1120h184v-1120h-184zM193 1323v233h184v-233h-184z" />
<glyph unicode="j" horiz-adv-x="569" d="M-37 -270h49q105 0 143 48.5t38 201.5v1140h184v-1140q0 -214 -81.5 -310t-262.5 -96h-70v156zM193 1323v233h184v-233h-184z" />
<glyph unicode="k" horiz-adv-x="1186" d="M186 0v1556h185v-919l549 483h235l-594 -524l619 -596h-240l-569 547v-547h-185z" />
<glyph unicode="l" horiz-adv-x="569" d="M193 0v1556h184v-1556h-184z" />
<glyph unicode="m" horiz-adv-x="1995" d="M186 0v1120h185v-174q63 103 151 152t209 49q122 0 207.5 -62t126.5 -180q69 124 165 183t226 59q175 0 270 -122.5t95 -348.5v-676h-185v670q0 161 -57 239t-174 78q-143 0 -226 -95t-83 -259v-633h-185v670q0 162 -57 239.5t-176 77.5q-141 0 -224 -95.5t-83 -258.5 v-633h-185z" />
<glyph unicode="n" horiz-adv-x="1298" d="M186 0v1120h185v-174q66 101 155.5 151t206.5 50q193 0 292 -119.5t99 -351.5v-676h-184v670q0 159 -62 238t-186 79q-149 0 -235 -95t-86 -259v-633h-185z" />
<glyph unicode="o" horiz-adv-x="1253" d="M113 559q0 276 136.5 432t377.5 156q240 0 377 -156t137 -432q0 -275 -137 -431.5t-377 -156.5q-241 0 -377.5 156.5t-136.5 431.5zM307 559q0 -201 85.5 -316.5t234.5 -115.5q147 0 233 116t86 316q0 199 -86 315.5t-233 116.5q-148 0 -234 -115.5t-86 -316.5z" />
<glyph unicode="p" horiz-adv-x="1300" d="M186 -426v1546h185v-170q58 100 146.5 148.5t211.5 48.5q204 0 331.5 -162t127.5 -426t-127.5 -426t-331.5 -162q-123 0 -211.5 48.5t-146.5 148.5v-594h-185zM371 559q0 -203 83.5 -318.5t229.5 -115.5t229.5 115.5t83.5 318.5t-83.5 318.5t-229.5 115.5t-229.5 -115.5 t-83.5 -318.5z" />
<glyph unicode="q" horiz-adv-x="1300" d="M113 559q0 264 127.5 426t330.5 162q124 0 212.5 -48.5t146.5 -148.5v170h184v-1546h-184v594q-58 -100 -146.5 -148.5t-212.5 -48.5q-203 0 -330.5 162t-127.5 426zM303 559q0 -203 83.5 -318.5t229.5 -115.5t230 115.5t84 318.5t-84 318.5t-230 115.5t-229.5 -115.5 t-83.5 -318.5z" />
<glyph unicode="r" horiz-adv-x="842" d="M186 0v1120h185v-174q58 102 151 151.5t226 49.5q19 0 42 -2.5t51 -7.5l1 -189q-31 18 -67.5 26.5t-80.5 8.5q-156 0 -239.5 -101.5t-83.5 -291.5v-590h-185z" />
<glyph unicode="s" horiz-adv-x="1067" d="M111 41v190q102 -53 201 -79.5t196 -26.5q130 0 200 44.5t70 125.5q0 75 -50.5 115t-221.5 77l-64 15q-171 36 -247 110.5t-76 204.5q0 158 112 244t318 86q102 0 192 -15t166 -45v-174q-78 40 -162 60t-174 20q-137 0 -205.5 -42t-68.5 -126q0 -64 49 -100.5t197 -69.5 l63 -14q196 -42 278.5 -118.5t82.5 -213.5q0 -156 -123.5 -247t-339.5 -91q-90 0 -187.5 17.5t-205.5 52.5z" />
<glyph unicode="t" horiz-adv-x="803" d="M55 977v143h135v318h185v-318h379v-143h-379v-608q0 -137 37.5 -176t152.5 -39h189v-154h-189q-213 0 -294 79.5t-81 289.5v608h-135z" />
<glyph unicode="u" horiz-adv-x="1298" d="M174 442v678h184v-671q0 -159 62 -238.5t186 -79.5q149 0 235.5 95t86.5 259v635h184v-1120h-184v172q-67 -102 -155.5 -151.5t-205.5 -49.5q-193 0 -293 120t-100 351zM637 1147z" />
<glyph unicode="v" horiz-adv-x="1212" d="M61 1120h195l350 -940l350 940h195l-420 -1120h-250z" />
<glyph unicode="w" horiz-adv-x="1675" d="M86 1120h184l230 -874l229 874h217l230 -874l229 874h184l-293 -1120h-217l-241 918l-242 -918h-217z" />
<glyph unicode="x" horiz-adv-x="1212" d="M59 0l435 586l-398 534h217l297 -399l297 399h217l-405 -545l426 -575h-217l-326 440l-326 -440h-217z" />
<glyph unicode="y" horiz-adv-x="1212" d="M61 1120h195l350 -876l350 876h195l-492 -1224q-78 -200 -152 -261t-198 -61h-147v154h108q76 0 118 36t93 170l33 84z" />
<glyph unicode="z" horiz-adv-x="1075" d="M88 0v168l692 805h-667v147h874v-168l-692 -805h692v-147h-899z" />
<glyph unicode="{" d="M256 541v143h61q143 0 196.5 57.5t53.5 206.5v240q0 221 84.5 294.5t333.5 73.5h62v-143h-68q-141 0 -184 -44t-43 -185v-248q0 -157 -45.5 -228t-155.5 -96q111 -27 156 -98t45 -227v-248q0 -141 43 -185t184 -44h68v-144h-62q-249 0 -333.5 74t-84.5 295v239 q0 151 -54 209t-196 58h-61z" />
<glyph unicode="|" horiz-adv-x="690" d="M260 -483v2048h170v-2048h-170z" />
<glyph unicode="}" d="M256 -190h70q140 0 182.5 43t42.5 186v248q0 156 45 227t156 98q-111 25 -156 96t-45 228v248q0 142 -42.5 185.5t-182.5 43.5h-70v143h63q249 0 332.5 -73.5t83.5 -294.5v-240q0 -149 54 -206.5t196 -57.5h62v-143h-62q-142 0 -196 -58t-54 -209v-239q0 -221 -83.5 -295 t-332.5 -74h-63v144z" />
<glyph unicode="~" horiz-adv-x="1716" d="M217 467v178q105 79 194.5 113.5t186.5 34.5q110 0 257 -60l15 -6q8 -3 22 -8q155 -62 249 -62q86 0 170.5 38t187.5 122v-178q-105 -79 -194.5 -113t-186.5 -34q-110 0 -256 59q-11 4 -16 6q-7 3 -22 8q-155 62 -249 62q-88 0 -174 -38.5t-184 -121.5z" />
<glyph unicode="&#xa1;" horiz-adv-x="821" d="M309 0v655l21 357h162l20 -357v-655h-203zM309 1239v254h203v-254h-203z" />
<glyph unicode="&#xa2;" d="M172 559q0 258 132.5 411t373.5 175v287h102l1 -287q73 -4 141.5 -20.5t136.5 -47.5v-172q-74 41 -142 62t-136 24l-1 -864q70 5 138.5 26t140.5 60v-170q-65 -30 -133.5 -47.5t-145.5 -24.5v-284h-102v288q-241 20 -373.5 173.5t-132.5 410.5zM367 559q0 -185 82 -298 t229 -130v856q-147 -18 -229 -131t-82 -297z" />
<glyph unicode="&#xa3;" d="M129 0v170h236v465h-199v143h199v238q0 261 107 382.5t339 121.5q61 0 136.5 -15.5t154.5 -44.5v-182q-76 41 -144 61.5t-129 20.5q-148 0 -206 -77.5t-58 -289.5v-215h391v-143h-391v-465h557v-170h-993z" />
<glyph unicode="&#xa4;" d="M94 197l207 206q-37 62 -55.5 121t-18.5 117q0 64 19 122t57 114l-207 206l115 115l207 -207q55 39 113 57.5t122 18.5q60 0 118.5 -18t119.5 -56l207 209l114 -115l-206 -206q37 -59 55 -118.5t18 -121.5q0 -63 -19 -120.5t-59 -114.5l209 -207l-114 -113l-207 207 q-59 -40 -117 -59t-119 -19q-58 0 -118 18.5t-121 55.5l-207 -207zM383 643q0 -114 78.5 -192t191.5 -78t191 78.5t78 191.5q0 112 -77.5 189t-191.5 77q-112 0 -191 -77t-79 -189z" />
<glyph unicode="&#xa5;" d="M82 1493h190l379 -700l377 700h191l-318 -586h264v-123h-331l-84 -155v-51h415v-123h-413v-455h-201v455h-416v123h416v51l-84 155h-332v123h264z" />
<glyph unicode="&#xa6;" horiz-adv-x="690" d="M260 -350v758h170v-758h-170zM260 674v758h170v-758h-170z" />
<glyph unicode="&#xa7;" horiz-adv-x="1024" d="M92 723q0 91 46.5 162.5t137.5 120.5q-59 44 -88.5 100t-29.5 125q0 130 100 209.5t266 79.5q73 0 149.5 -14.5t155.5 -43.5v-164q-83 39 -154.5 58.5t-127.5 19.5q-97 0 -151 -40t-54 -111q0 -90 206 -205q26 -15 40 -23q211 -119 276.5 -196t65.5 -178q0 -90 -46 -160 t-139 -123q62 -52 90.5 -106.5t28.5 -118.5q0 -142 -102 -226t-275 -84q-73 0 -150 14.5t-165 43.5v164q87 -39 161 -58.5t132 -19.5q102 0 158.5 42t56.5 118q0 102 -221 225l-25 14q-214 120 -278 196.5t-64 178.5zM254 754q0 -76 69.5 -142.5t319.5 -201.5q63 45 94 90.5 t31 91.5q0 75 -71.5 143t-317.5 201q-63 -46 -94 -91t-31 -91z" />
<glyph unicode="&#xa8;" horiz-adv-x="1024" d="M215 1350v202h203v-202h-203zM606 1350v202h203v-202h-203z" />
<glyph unicode="&#xa9;" horiz-adv-x="2048" d="M283 741q0 154 54 285t163 240t240.5 164t283.5 55t283.5 -55t240.5 -164t163 -240t54 -285q0 -152 -54 -282.5t-163 -239.5t-240.5 -164t-283.5 -55t-283.5 55t-240.5 164t-163 239.5t-54 282.5zM383 741q0 -129 48 -242.5t142 -207.5t207 -141.5t244 -47.5 q132 0 245.5 47.5t207.5 141.5q93 93 139.5 206t46.5 244q0 133 -47 246.5t-139 206.5q-94 94 -207.5 141t-245.5 47q-131 0 -244 -47t-207 -141t-142 -208.5t-48 -244.5zM582 741q0 209 125.5 330t341.5 121q73 0 141 -14t133 -41v-129q-66 33 -131 49t-131 16 q-149 0 -232.5 -87.5t-83.5 -244.5q0 -159 85.5 -246t240.5 -87q64 0 125 15.5t127 49.5v-127q-67 -29 -135.5 -43t-138.5 -14q-216 0 -341.5 122t-125.5 330z" />
<glyph unicode="&#xaa;" horiz-adv-x="965" d="M115 946q0 135 95.5 204t283.5 69h182v4q0 91 -58.5 136.5t-175.5 45.5q-62 0 -130 -17t-136 -51v127q73 28 145.5 42t141.5 14q183 0 272.5 -88t89.5 -267v-448h-149v112q-44 -63 -116 -97t-165 -34q-128 0 -204 67.5t-76 180.5zM139 469v123h688v-123h-688zM262 958 q0 -64 49 -102.5t131 -38.5q104 0 169 72t65 186v29h-127q-161 0 -224 -33.5t-63 -112.5z" />
<glyph unicode="&#xab;" horiz-adv-x="1253" d="M158 559v82l469 418v-191l-301 -268l301 -268v-191zM592 559v82l469 418v-191l-301 -268l301 -268v-191z" />
<glyph unicode="&#xac;" horiz-adv-x="1716" d="M217 692v170h1282v-575h-168v405h-1114z" />
<glyph unicode="&#xad;" horiz-adv-x="739" d="M100 479v164h539v-164h-539z" />
<glyph unicode="&#xae;" horiz-adv-x="2048" d="M283 741q0 154 54 285t163 240t240.5 164t283.5 55t283.5 -55t240.5 -164t163 -240t54 -285q0 -152 -54 -282.5t-163 -239.5t-240.5 -164t-283.5 -55t-283.5 55t-240.5 164t-163 239.5t-54 282.5zM383 741q0 -129 48 -242.5t142 -207.5t207 -141.5t244 -47.5 q132 0 245.5 47.5t207.5 141.5q93 93 139.5 206t46.5 244q0 133 -47 246.5t-139 206.5q-94 94 -207.5 141t-245.5 47q-131 0 -244 -47t-207 -141t-142 -208.5t-48 -244.5zM719 338v836h285q176 0 263 -59.5t87 -180.5q0 -86 -52.5 -142t-148.5 -73q24 -8 57.5 -46.5 t79.5 -111.5l137 -223h-172l-129 209q-59 96 -95.5 121.5t-90.5 25.5h-66v-356h-155zM874 795h123q110 0 153.5 31t43.5 106q0 76 -44 107.5t-153 31.5h-123v-276z" />
<glyph unicode="&#xaf;" horiz-adv-x="1024" d="M213 1378v148h598v-148h-598z" />
<glyph unicode="&#xb0;" horiz-adv-x="1024" d="M195 1200q0 134 92 227t225 93q64 0 123 -24.5t102 -70.5q46 -45 69 -102t23 -123q0 -132 -92.5 -223.5t-226.5 -91.5q-135 0 -225 90t-90 225zM322 1200q0 -79 55 -133.5t135 -54.5t135 54.5t55 133.5t-55.5 135t-134.5 56q-80 0 -135 -55.5t-55 -135.5z" />
<glyph unicode="&#xb1;" horiz-adv-x="1716" d="M217 0v170h1282v-170h-1282zM217 727v170h557v387h168v-387h557v-170h-557v-387h-168v387h-557z" />
<glyph unicode="&#xb2;" horiz-adv-x="821" d="M94 668v110q34 31 97 87q344 305 344 399q0 66 -52 106.5t-137 40.5q-52 0 -113 -17.5t-133 -52.5v123q77 28 143.5 42t123.5 14q145 0 232 -66t87 -174q0 -139 -331 -423q-56 -48 -87 -75h424v-114h-598z" />
<glyph unicode="&#xb3;" horiz-adv-x="821" d="M98 694v121q52 -27 111.5 -40t126.5 -13q109 0 169 39.5t60 109.5q0 74 -55.5 112t-163.5 38h-86v108h94q94 0 142.5 31.5t48.5 91.5q0 58 -50 88.5t-145 30.5q-40 0 -91 -9t-132 -32v115q73 17 137 26t119 9q144 0 228.5 -59t84.5 -158q0 -69 -45 -117t-127 -66 q92 -18 142.5 -72.5t50.5 -136.5q0 -124 -95 -191t-272 -67q-57 0 -119.5 10.5t-132.5 30.5z" />
<glyph unicode="&#xb4;" horiz-adv-x="1024" d="M371 1262l280 376h199l-326 -376h-153z" />
<glyph unicode="&#xb5;" d="M174 -426v1546h184v-696q0 -145 69 -219t204 -74q148 0 222.5 84t74.5 252v653h184v-862q0 -60 17.5 -88.5t54.5 -28.5q9 0 25 5.5t44 17.5v-148q-41 -23 -77.5 -34t-71.5 -11q-69 0 -110 39t-56 119q-50 -79 -122.5 -118.5t-170.5 -39.5q-102 0 -173.5 39t-113.5 117 v-553h-184z" />
<glyph unicode="&#xb6;" d="M158 1071q0 190 130 306t345 116h448v-1690h-141v1567h-190v-1567h-142v846q-215 17 -332.5 127.5t-117.5 294.5z" />
<glyph unicode="&#xb7;" horiz-adv-x="651" d="M219 584v254h211v-254h-211z" />
<glyph unicode="&#xb8;" horiz-adv-x="1024" d="M291 -240q34 -17 71 -24.5t84 -7.5q59 0 89 24t30 70q0 30 -21.5 73.5t-66.5 104.5h119q55 -62 82 -114.5t27 -100.5q0 -89 -60 -134.5t-178 -45.5q-46 0 -89.5 6t-86.5 18v131z" />
<glyph unicode="&#xb9;" horiz-adv-x="821" d="M137 1348v116l230 39h137v-725h205v-110h-553v110h204v611z" />
<glyph unicode="&#xba;" horiz-adv-x="965" d="M96 1108q0 191 104 301.5t283 110.5t282 -110.5t103 -301.5t-103 -300.5t-282 -109.5t-283 110t-104 300zM139 469v123h688v-123h-688zM252 1108q0 -133 63.5 -213t167.5 -80q105 0 167.5 80t62.5 213q0 137 -62 217t-168 80q-105 0 -168 -80.5t-63 -216.5z" />
<glyph unicode="&#xbb;" horiz-adv-x="1253" d="M193 141v191l301 268l-301 268v191l469 -418v-82zM627 141v191l301 268l-301 268v191l469 -418v-82z" />
<glyph unicode="&#xbc;" horiz-adv-x="1985" d="M137 1348v116l230 39h137v-725h205v-110h-553v110h204v611zM446 -29l932 1549h160l-932 -1549h-160zM1226 186v121l392 528h166v-540h135v-109h-135v-186h-144v186h-414zM1331 295h309v419z" />
<glyph unicode="&#xbd;" horiz-adv-x="1985" d="M137 1348v116l230 39h137v-725h205v-110h-553v110h204v611zM446 -29l932 1549h160l-932 -1549h-160zM1257 0v110q34 31 97 87q344 305 344 399q0 66 -52 106.5t-137 40.5q-52 0 -113 -17.5t-133 -52.5v123q77 28 143.5 42t123.5 14q145 0 232 -66t87 -174 q0 -139 -331 -423q-56 -48 -87 -75h424v-114h-598z" />
<glyph unicode="&#xbe;" horiz-adv-x="1985" d="M98 694v121q52 -27 111.5 -40t126.5 -13q109 0 169 39.5t60 109.5q0 74 -55.5 112t-163.5 38h-86v108h94q94 0 142.5 31.5t48.5 91.5q0 58 -50 88.5t-145 30.5q-40 0 -91 -9t-132 -32v115q73 17 137 26t119 9q144 0 228.5 -59t84.5 -158q0 -69 -45 -117t-127 -66 q92 -18 142.5 -72.5t50.5 -136.5q0 -124 -95 -191t-272 -67q-57 0 -119.5 10.5t-132.5 30.5zM446 -29l932 1549h160l-932 -1549h-160zM1226 186v121l392 528h166v-540h135v-109h-135v-186h-144v186h-414zM1331 295h309v419z" />
<glyph unicode="&#xbf;" horiz-adv-x="1087" d="M143 324q0 76 36.5 144.5t125.5 154.5l88 86q48 47 67 73.5t27 51.5q7 21 10 51t3 84v123h190v-156q0 -101 -27.5 -166t-117.5 -152l-90 -88q-58 -53 -83.5 -100t-25.5 -96q0 -89 65.5 -144t174.5 -55q78 0 168 35t186 102v-188q-94 -57 -190 -85t-199 -28 q-184 0 -296 97t-112 256zM494 1239v254h202v-254h-202z" />
<glyph unicode="&#xc0;" horiz-adv-x="1401" d="M16 0l570 1493h229l569 -1493h-210l-136 383h-673l-136 -383h-213zM426 551h549l-275 743zM456 1899h187l196 -264h-153z" />
<glyph unicode="&#xc1;" horiz-adv-x="1401" d="M16 0l570 1493h229l569 -1493h-210l-136 383h-673l-136 -383h-213zM426 551h549l-275 743zM559 1635l196 264h185l-228 -264h-153z" />
<glyph unicode="&#xc2;" horiz-adv-x="1401" d="M16 0l570 1493h229l569 -1493h-210l-136 383h-673l-136 -383h-213zM395 1635l211 266h188l211 -266h-139l-166 178l-166 -178h-139zM426 551h549l-275 743z" />
<glyph unicode="&#xc3;" horiz-adv-x="1401" d="M16 0l570 1493h229l569 -1493h-210l-136 383h-673l-136 -383h-213zM370 1667q0 101 51.5 160t137.5 59q36 0 66.5 -8t78.5 -35l57 -30q23 -13 40 -19t32 -6q32 0 52 25.5t20 66.5v6h125q-2 -100 -53.5 -159.5t-135.5 -59.5q-34 0 -63.5 8t-81.5 35l-57 33 q-25 14 -40.5 19.5t-27.5 5.5q-36 0 -56 -25t-20 -70v-6h-125zM426 551h549l-275 743z" />
<glyph unicode="&#xc4;" horiz-adv-x="1401" d="M16 0l570 1493h229l569 -1493h-210l-136 383h-673l-136 -383h-213zM403 1667v203h203v-203h-203zM426 551h549l-275 743zM794 1667v203h203v-203h-203z" />
<glyph unicode="&#xc5;" horiz-adv-x="1401" d="M16 0l533 1397q-61 41 -92 98.5t-31 130.5q0 115 79.5 195t194.5 80q114 0 194.5 -80.5t80.5 -194.5q0 -70 -31.5 -129t-91.5 -100l532 -1397h-210l-136 383h-673l-136 -383h-213zM428 551h545l-273 743zM549 1626q0 -63 44 -107t107 -44t107.5 44t44.5 107t-44.5 107.5 t-107.5 44.5q-64 0 -107.5 -43.5t-43.5 -108.5z" />
<glyph unicode="&#xc6;" horiz-adv-x="1995" d="M8 0l625 1493h1212v-170h-741v-442h711v-170h-711v-541h760v-170h-963v383h-528l-160 -383h-205zM442 551h459v784h-129z" />
<glyph unicode="&#xc7;" horiz-adv-x="1430" d="M115 745q0 360 195 567.5t534 207.5q134 0 252.5 -35.5t222.5 -106.5v-213q-102 95 -217.5 142t-245.5 47q-256 0 -392 -156.5t-136 -452.5q0 -295 136 -451.5t392 -156.5q130 0 245.5 47t217.5 142v-211q-106 -72 -224.5 -108t-250.5 -36q-339 0 -534 207.5t-195 566.5z M592 -240q34 -17 71 -24.5t84 -7.5q59 0 89 24t30 70q0 30 -21.5 73.5t-66.5 104.5h119q55 -62 82 -114.5t27 -100.5q0 -89 -60 -134.5t-178 -45.5q-46 0 -89.5 6t-86.5 18v131z" />
<glyph unicode="&#xc8;" horiz-adv-x="1294" d="M201 0v1493h944v-170h-742v-442h711v-170h-711v-541h760v-170h-962zM426 1899h187l196 -264h-153z" />
<glyph unicode="&#xc9;" horiz-adv-x="1294" d="M201 0v1493h944v-170h-742v-442h711v-170h-711v-541h760v-170h-962zM529 1635l196 264h185l-228 -264h-153z" />
<glyph unicode="&#xca;" horiz-adv-x="1294" d="M201 0v1493h944v-170h-742v-442h711v-170h-711v-541h760v-170h-962zM365 1635l211 266h188l211 -266h-139l-166 178l-166 -178h-139z" />
<glyph unicode="&#xcb;" horiz-adv-x="1294" d="M201 0v1493h944v-170h-742v-442h711v-170h-711v-541h760v-170h-962zM373 1667v203h203v-203h-203zM764 1667v203h203v-203h-203z" />
<glyph unicode="&#xcc;" horiz-adv-x="604" d="M59 1899h187l196 -264h-153zM201 0v1493h202v-1493h-202z" />
<glyph unicode="&#xcd;" horiz-adv-x="604" d="M162 1635l196 264h185l-228 -264h-153zM201 0v1493h202v-1493h-202z" />
<glyph unicode="&#xce;" horiz-adv-x="604" d="M-2 1635l211 266h188l211 -266h-139l-166 178l-166 -178h-139zM201 0v1493h202v-1493h-202z" />
<glyph unicode="&#xcf;" horiz-adv-x="604" d="M6 1667v203h203v-203h-203zM201 0v1493h202v-1493h-202zM397 1667v203h203v-203h-203z" />
<glyph unicode="&#xd0;" horiz-adv-x="1587" d="M10 700v144h201v649h416q433 0 636 -180.5t203 -564.5q0 -386 -203.5 -567t-635.5 -181h-416v700h-201zM414 166h243q309 0 452.5 140t143.5 442q0 300 -143.5 439.5t-452.5 139.5h-243v-483h336v-144h-336v-534z" />
<glyph unicode="&#xd1;" horiz-adv-x="1532" d="M201 0v1493h272l662 -1249v1249h196v-1493h-272l-662 1249v-1249h-196zM436 1667q0 101 51.5 160t137.5 59q36 0 66.5 -8t78.5 -35l57 -30q23 -13 40 -19t32 -6q32 0 52 25.5t20 66.5v6h125q-2 -100 -53.5 -159.5t-135.5 -59.5q-34 0 -63.5 8t-81.5 35l-57 33 q-25 14 -40.5 19.5t-27.5 5.5q-36 0 -56 -25t-20 -70v-6h-125z" />
<glyph unicode="&#xd2;" horiz-adv-x="1612" d="M115 745q0 354 188.5 564.5t503.5 210.5q314 0 502 -210.5t188 -564.5q0 -353 -188 -563.5t-502 -210.5q-315 0 -503.5 210t-188.5 564zM328 745q0 -282 129.5 -446t349.5 -164t348.5 164t128.5 446q0 283 -128.5 447t-348.5 164t-349.5 -164t-129.5 -447zM563 1899h187 l196 -264h-153z" />
<glyph unicode="&#xd3;" horiz-adv-x="1612" d="M115 745q0 354 188.5 564.5t503.5 210.5q314 0 502 -210.5t188 -564.5q0 -353 -188 -563.5t-502 -210.5q-315 0 -503.5 210t-188.5 564zM328 745q0 -282 129.5 -446t349.5 -164t348.5 164t128.5 446q0 283 -128.5 447t-348.5 164t-349.5 -164t-129.5 -447zM666 1635 l196 264h185l-228 -264h-153z" />
<glyph unicode="&#xd4;" horiz-adv-x="1612" d="M115 745q0 354 188.5 564.5t503.5 210.5q314 0 502 -210.5t188 -564.5q0 -353 -188 -563.5t-502 -210.5q-315 0 -503.5 210t-188.5 564zM328 745q0 -282 129.5 -446t349.5 -164t348.5 164t128.5 446q0 283 -128.5 447t-348.5 164t-349.5 -164t-129.5 -447zM502 1635 l211 266h188l211 -266h-139l-166 178l-166 -178h-139z" />
<glyph unicode="&#xd5;" horiz-adv-x="1612" d="M115 745q0 354 188.5 564.5t503.5 210.5q314 0 502 -210.5t188 -564.5q0 -353 -188 -563.5t-502 -210.5q-315 0 -503.5 210t-188.5 564zM328 745q0 -282 129.5 -446t349.5 -164t348.5 164t128.5 446q0 283 -128.5 447t-348.5 164t-349.5 -164t-129.5 -447zM477 1667 q0 101 51.5 160t137.5 59q36 0 66.5 -8t78.5 -35l57 -30q23 -13 40 -19t32 -6q32 0 52 25.5t20 66.5v6h125q-2 -100 -53.5 -159.5t-135.5 -59.5q-34 0 -63.5 8t-81.5 35l-57 33q-25 14 -40.5 19.5t-27.5 5.5q-36 0 -56 -25t-20 -70v-6h-125z" />
<glyph unicode="&#xd6;" horiz-adv-x="1612" d="M115 745q0 354 188.5 564.5t503.5 210.5q314 0 502 -210.5t188 -564.5q0 -353 -188 -563.5t-502 -210.5q-315 0 -503.5 210t-188.5 564zM328 745q0 -282 129.5 -446t349.5 -164t348.5 164t128.5 446q0 283 -128.5 447t-348.5 164t-349.5 -164t-129.5 -447zM510 1667v203 h203v-203h-203zM901 1667v203h203v-203h-203z" />
<glyph unicode="&#xd7;" horiz-adv-x="1716" d="M281 184l456 457l-456 459l118 121l459 -459l459 459l119 -121l-457 -459l457 -457l-119 -121l-459 459l-459 -459z" />
<glyph unicode="&#xd8;" horiz-adv-x="1612" d="M102 18l170 201q-78 102 -117.5 234t-39.5 292q0 354 188.5 564.5t503.5 210.5q130 0 240.5 -38.5t197.5 -113.5l162 191l102 -89l-170 -198q78 -103 118 -236t40 -291q0 -353 -188 -563.5t-502 -210.5q-128 0 -238.5 37.5t-201.5 112.5l-162 -191zM328 745 q0 -112 19.5 -206t58.5 -162l718 848q-61 64 -141.5 97.5t-175.5 33.5q-220 0 -349.5 -164t-129.5 -447zM489 266q62 -64 142.5 -97.5t175.5 -33.5q220 0 348.5 164t128.5 446q0 112 -19.5 204t-58.5 163z" />
<glyph unicode="&#xd9;" horiz-adv-x="1499" d="M178 561v932h203v-907q0 -240 87 -345.5t282 -105.5q194 0 281 105.5t87 345.5v907h203v-932q0 -292 -144.5 -441t-426.5 -149q-283 0 -427.5 149t-144.5 441zM506 1899h187l196 -264h-153z" />
<glyph unicode="&#xda;" horiz-adv-x="1499" d="M178 561v932h203v-907q0 -240 87 -345.5t282 -105.5q194 0 281 105.5t87 345.5v907h203v-932q0 -292 -144.5 -441t-426.5 -149q-283 0 -427.5 149t-144.5 441zM609 1635l196 264h185l-228 -264h-153z" />
<glyph unicode="&#xdb;" horiz-adv-x="1499" d="M178 561v932h203v-907q0 -240 87 -345.5t282 -105.5q194 0 281 105.5t87 345.5v907h203v-932q0 -292 -144.5 -441t-426.5 -149q-283 0 -427.5 149t-144.5 441zM445 1635l211 266h188l211 -266h-139l-166 178l-166 -178h-139z" />
<glyph unicode="&#xdc;" horiz-adv-x="1499" d="M178 561v932h203v-907q0 -240 87 -345.5t282 -105.5q194 0 281 105.5t87 345.5v907h203v-932q0 -292 -144.5 -441t-426.5 -149q-283 0 -427.5 149t-144.5 441zM453 1667v203h203v-203h-203zM844 1667v203h203v-203h-203z" />
<glyph unicode="&#xdd;" horiz-adv-x="1251" d="M-4 1493h217l414 -614l411 614h217l-528 -782v-711h-203v711zM486 1635l196 264h185l-228 -264h-153z" />
<glyph unicode="&#xde;" horiz-adv-x="1239" d="M201 0v1493h202v-264h254q251 0 379.5 -112.5t128.5 -332.5t-128.5 -333t-379.5 -113h-254v-338h-202zM403 504h254q141 0 218 73t77 207t-76.5 206.5t-218.5 72.5h-254v-559z" />
<glyph unicode="&#xdf;" horiz-adv-x="1290" d="M186 0v1137q0 200 119.5 309.5t337.5 109.5q208 0 317.5 -116t112.5 -340q-151 -8 -235 -65.5t-84 -153.5q0 -47 29 -87.5t94 -82.5l57 -37q166 -106 214 -177t48 -171q0 -172 -112.5 -263.5t-323.5 -91.5q-64 0 -132 12.5t-141 36.5v164q80 -30 150 -44.5t135 -14.5 q116 0 176 47.5t60 138.5q0 63 -29.5 105t-130.5 104l-92 55q-96 59 -139.5 126.5t-43.5 158.5q0 127 83.5 213t234.5 115q-8 103 -73.5 159t-178.5 56q-130 0 -198 -69.5t-68 -200.5v-1133h-187z" />
<glyph unicode="&#xe0;" horiz-adv-x="1255" d="M123 326q0 189 126.5 285t377.5 96h258v18q0 127 -83.5 196.5t-234.5 69.5q-96 0 -187 -23t-175 -69v170q101 39 196 58.5t185 19.5q243 0 363 -126t120 -382v-639h-184v170q-63 -102 -157 -150.5t-230 -48.5q-172 0 -273.5 96.5t-101.5 258.5zM252 1638h197l282 -374 h-153zM307 338q0 -98 64.5 -155.5t175.5 -57.5q153 0 245.5 108.5t92.5 288.5v41h-183q-223 0 -309 -51t-86 -174z" />
<glyph unicode="&#xe1;" horiz-adv-x="1255" d="M123 326q0 189 126.5 285t377.5 96h258v18q0 127 -83.5 196.5t-234.5 69.5q-96 0 -187 -23t-175 -69v170q101 39 196 58.5t185 19.5q243 0 363 -126t120 -382v-639h-184v170q-63 -102 -157 -150.5t-230 -48.5q-172 0 -273.5 96.5t-101.5 258.5zM307 338 q0 -98 64.5 -155.5t175.5 -57.5q153 0 245.5 108.5t92.5 288.5v41h-183q-223 0 -309 -51t-86 -174zM453 1262l280 376h199l-326 -376h-153z" />
<glyph unicode="&#xe2;" horiz-adv-x="1255" d="M123 326q0 189 126.5 285t377.5 96h258v18q0 127 -83.5 196.5t-234.5 69.5q-96 0 -187 -23t-175 -69v170q101 39 196 58.5t185 19.5q243 0 363 -126t120 -382v-639h-184v170q-63 -102 -157 -150.5t-230 -48.5q-172 0 -273.5 96.5t-101.5 258.5zM275 1262l245 376h148 l245 -376h-139l-180 245l-180 -245h-139zM307 338q0 -98 64.5 -155.5t175.5 -57.5q153 0 245.5 108.5t92.5 288.5v41h-183q-223 0 -309 -51t-86 -174z" />
<glyph unicode="&#xe3;" horiz-adv-x="1255" d="M123 326q0 189 126.5 285t377.5 96h258v18q0 127 -83.5 196.5t-234.5 69.5q-96 0 -187 -23t-175 -69v170q101 39 196 58.5t185 19.5q243 0 363 -126t120 -382v-639h-184v170q-63 -102 -157 -150.5t-230 -48.5q-172 0 -273.5 96.5t-101.5 258.5zM264 1309q2 135 53 208.5 t142 73.5q38 0 70 -14t69 -47l57 -55q22 -20 38.5 -29.5t29.5 -9.5q38 0 56 36.5t20 118.5h125q-2 -135 -53 -208.5t-142 -73.5q-38 0 -70 14t-69 47l-57 55q-22 20 -38.5 29.5t-29.5 9.5q-38 0 -56 -36.5t-20 -118.5h-125zM307 338q0 -98 64.5 -155.5t175.5 -57.5 q153 0 245.5 108.5t92.5 288.5v41h-183q-223 0 -309 -51t-86 -174z" />
<glyph unicode="&#xe4;" horiz-adv-x="1255" d="M123 326q0 189 126.5 285t377.5 96h258v18q0 127 -83.5 196.5t-234.5 69.5q-96 0 -187 -23t-175 -69v170q101 39 196 58.5t185 19.5q243 0 363 -126t120 -382v-639h-184v170q-63 -102 -157 -150.5t-230 -48.5q-172 0 -273.5 96.5t-101.5 258.5zM297 1350v202h203v-202 h-203zM307 338q0 -98 64.5 -155.5t175.5 -57.5q153 0 245.5 108.5t92.5 288.5v41h-183q-223 0 -309 -51t-86 -174zM688 1350v202h203v-202h-203z" />
<glyph unicode="&#xe5;" horiz-adv-x="1255" d="M123 326q0 189 126.5 285t377.5 96h258v18q0 127 -83.5 196.5t-234.5 69.5q-96 0 -187 -23t-175 -69v170q101 39 196 58.5t185 19.5q243 0 363 -126t120 -382v-639h-184v170q-63 -102 -157 -150.5t-230 -48.5q-172 0 -273.5 96.5t-101.5 258.5zM307 338 q0 -98 64.5 -155.5t175.5 -57.5q153 0 245.5 108.5t92.5 288.5v41h-183q-223 0 -309 -51t-86 -174zM320 1524q0 115 79.5 194.5t194.5 79.5t194.5 -79.5t79.5 -194.5t-79.5 -195t-194.5 -80t-194.5 80t-79.5 195zM442 1524q0 -65 43.5 -108.5t108.5 -43.5q64 0 108 44 t44 108q0 63 -44 107t-108 44q-65 0 -108.5 -43.5t-43.5 -107.5z" />
<glyph unicode="&#xe6;" horiz-adv-x="2011" d="M123 326q0 189 126.5 285t377.5 96h258v18q0 127 -83.5 196.5t-234.5 69.5q-96 0 -187 -23t-175 -69v170q101 39 196 58.5t185 19.5q142 0 248.5 -48t160.5 -136q74 90 180 137t238 47q226 0 358 -145.5t132 -395.5v-90h-846q12 -191 114 -291t285 -100q104 0 204 26.5 t200 79.5v-174q-100 -42 -204 -64t-210 -22q-167 0 -291 60.5t-201 179.5q-73 -120 -181 -180t-251 -60q-189 0 -294 93.5t-105 261.5zM307 338q0 -98 64.5 -155.5t175.5 -57.5q153 0 245.5 108.5t92.5 288.5v41h-183q-223 0 -309 -51t-86 -174zM1063 659l655 1 q-1 151 -83.5 241t-219.5 90q-153 0 -245.5 -87t-106.5 -245z" />
<glyph unicode="&#xe7;" horiz-adv-x="1126" d="M113 559q0 274 150.5 431t412.5 157q85 0 166 -17.5t157 -52.5v-172q-78 43 -156.5 64.5t-158.5 21.5q-179 0 -278 -113.5t-99 -318.5t99 -318.5t278 -113.5q80 0 158.5 21.5t156.5 64.5v-170q-77 -36 -159.5 -54t-175.5 -18q-253 0 -402 159t-149 429zM434 -240 q34 -17 71 -24.5t84 -7.5q59 0 89 24t30 70q0 30 -21.5 73.5t-66.5 104.5h119q55 -62 82 -114.5t27 -100.5q0 -89 -60 -134.5t-178 -45.5q-46 0 -89.5 6t-86.5 18v131z" />
<glyph unicode="&#xe8;" horiz-adv-x="1260" d="M113 549q0 275 148.5 436.5t400.5 161.5q226 0 357.5 -145.5t131.5 -395.5v-90h-846q12 -190 114.5 -289.5t285.5 -99.5q106 0 205.5 26t197.5 78v-174q-99 -42 -203 -64t-211 -22q-268 0 -424.5 156t-156.5 422zM309 1638h197l282 -374h-153zM311 659l656 1 q-2 151 -84.5 241t-218.5 90q-154 0 -246.5 -87t-106.5 -245z" />
<glyph unicode="&#xe9;" horiz-adv-x="1260" d="M113 549q0 275 148.5 436.5t400.5 161.5q226 0 357.5 -145.5t131.5 -395.5v-90h-846q12 -190 114.5 -289.5t285.5 -99.5q106 0 205.5 26t197.5 78v-174q-99 -42 -203 -64t-211 -22q-268 0 -424.5 156t-156.5 422zM311 659l656 1q-2 151 -84.5 241t-218.5 90 q-154 0 -246.5 -87t-106.5 -245zM510 1262l280 376h199l-326 -376h-153z" />
<glyph unicode="&#xea;" horiz-adv-x="1260" d="M113 549q0 275 148.5 436.5t400.5 161.5q226 0 357.5 -145.5t131.5 -395.5v-90h-846q12 -190 114.5 -289.5t285.5 -99.5q106 0 205.5 26t197.5 78v-174q-99 -42 -203 -64t-211 -22q-268 0 -424.5 156t-156.5 422zM311 659l656 1q-2 151 -84.5 241t-218.5 90 q-154 0 -246.5 -87t-106.5 -245zM332 1262l245 376h148l245 -376h-139l-180 245l-180 -245h-139z" />
<glyph unicode="&#xeb;" horiz-adv-x="1260" d="M113 549q0 275 148.5 436.5t400.5 161.5q226 0 357.5 -145.5t131.5 -395.5v-90h-846q12 -190 114.5 -289.5t285.5 -99.5q106 0 205.5 26t197.5 78v-174q-99 -42 -203 -64t-211 -22q-268 0 -424.5 156t-156.5 422zM311 659l656 1q-2 151 -84.5 241t-218.5 90 q-154 0 -246.5 -87t-106.5 -245zM354 1350v202h203v-202h-203zM745 1350v202h203v-202h-203z" />
<glyph unicode="&#xec;" horiz-adv-x="569" d="M-57 1638h197l282 -374h-153zM193 0v1120h184v-1120h-184zM285 1147z" />
<glyph unicode="&#xed;" horiz-adv-x="569" d="M144 1262l280 376h199l-326 -376h-153zM193 0v1120h184v-1120h-184zM285 1147z" />
<glyph unicode="&#xee;" horiz-adv-x="569" d="M-34 1262l245 376h148l245 -376h-139l-180 245l-180 -245h-139zM193 0v1120h184v-1120h-184zM285 1147z" />
<glyph unicode="&#xef;" horiz-adv-x="569" d="M-12 1350v202h203v-202h-203zM193 0v1120h184v-1120h-184zM285 1147zM379 1350v202h203v-202h-203z" />
<glyph unicode="&#xf0;" horiz-adv-x="1253" d="M113 537q0 250 138 405.5t359 155.5q18 0 44 -2.5t68 -7.5l-159 180l-319 -107l-33 99l281 92l-181 204h228l127 -145l333 111l33 -97l-295 -98l164 -186q126 -143 183 -287t57 -317q0 -255 -142 -410.5t-372 -155.5q-231 0 -372.5 155.5t-141.5 410.5zM307 537 q0 -188 87 -299t233 -111q145 0 232 111t87 299q0 122 -27 216t-81 162q-50 17 -94 25t-85 8q-167 0 -259.5 -108t-92.5 -303z" />
<glyph unicode="&#xf1;" horiz-adv-x="1298" d="M186 0v1120h185v-174q66 101 155.5 151t206.5 50q193 0 292 -119.5t99 -351.5v-676h-184v670q0 159 -62 238t-186 79q-149 0 -235 -95t-86 -259v-633h-185zM334 1309q2 135 53 208.5t142 73.5q38 0 70 -14t69 -47l57 -55q22 -20 38.5 -29.5t29.5 -9.5q38 0 56 36.5 t20 118.5h125q-2 -135 -53 -208.5t-142 -73.5q-38 0 -70 14t-69 47l-57 55q-22 20 -38.5 29.5t-29.5 9.5q-38 0 -56 -36.5t-20 -118.5h-125z" />
<glyph unicode="&#xf2;" horiz-adv-x="1253" d="M113 559q0 276 136.5 432t377.5 156q240 0 377 -156t137 -432q0 -275 -137 -431.5t-377 -156.5q-241 0 -377.5 156.5t-136.5 431.5zM285 1638h197l282 -374h-153zM307 559q0 -201 85.5 -316.5t234.5 -115.5q147 0 233 116t86 316q0 199 -86 315.5t-233 116.5 q-148 0 -234 -115.5t-86 -316.5z" />
<glyph unicode="&#xf3;" horiz-adv-x="1253" d="M113 559q0 276 136.5 432t377.5 156q240 0 377 -156t137 -432q0 -275 -137 -431.5t-377 -156.5q-241 0 -377.5 156.5t-136.5 431.5zM307 559q0 -201 85.5 -316.5t234.5 -115.5q147 0 233 116t86 316q0 199 -86 315.5t-233 116.5q-148 0 -234 -115.5t-86 -316.5zM486 1262 l280 376h199l-326 -376h-153z" />
<glyph unicode="&#xf4;" horiz-adv-x="1253" d="M113 559q0 276 136.5 432t377.5 156q240 0 377 -156t137 -432q0 -275 -137 -431.5t-377 -156.5q-241 0 -377.5 156.5t-136.5 431.5zM307 559q0 -201 85.5 -316.5t234.5 -115.5q147 0 233 116t86 316q0 199 -86 315.5t-233 116.5q-148 0 -234 -115.5t-86 -316.5zM308 1262 l245 376h148l245 -376h-139l-180 245l-180 -245h-139z" />
<glyph unicode="&#xf5;" horiz-adv-x="1253" d="M113 559q0 276 136.5 432t377.5 156q240 0 377 -156t137 -432q0 -275 -137 -431.5t-377 -156.5q-241 0 -377.5 156.5t-136.5 431.5zM297 1309q2 135 53 208.5t142 73.5q38 0 70 -14t69 -47l57 -55q22 -20 38.5 -29.5t29.5 -9.5q38 0 56 36.5t20 118.5h125 q-2 -135 -53 -208.5t-142 -73.5q-38 0 -70 14t-69 47l-57 55q-22 20 -38.5 29.5t-29.5 9.5q-38 0 -56 -36.5t-20 -118.5h-125zM307 559q0 -201 85.5 -316.5t234.5 -115.5q147 0 233 116t86 316q0 199 -86 315.5t-233 116.5q-148 0 -234 -115.5t-86 -316.5z" />
<glyph unicode="&#xf6;" horiz-adv-x="1253" d="M113 559q0 276 136.5 432t377.5 156q240 0 377 -156t137 -432q0 -275 -137 -431.5t-377 -156.5q-241 0 -377.5 156.5t-136.5 431.5zM307 559q0 -201 85.5 -316.5t234.5 -115.5q147 0 233 116t86 316q0 199 -86 315.5t-233 116.5q-148 0 -234 -115.5t-86 -316.5zM330 1350 v202h203v-202h-203zM721 1350v202h203v-202h-203z" />
<glyph unicode="&#xf7;" horiz-adv-x="1716" d="M217 557v170h1282v-170h-1282zM735 150v245h246v-245h-246zM735 889v246h246v-246h-246z" />
<glyph unicode="&#xf8;" horiz-adv-x="1253" d="M72 -16l149 182q-54 77 -81 175.5t-27 217.5q0 276 136.5 432t377.5 156q93 0 172.5 -25.5t146.5 -77.5l139 168l95 -79l-146 -179q53 -77 80 -176t27 -219q0 -275 -137 -431.5t-377 -156.5q-96 0 -176.5 26t-143.5 77l-139 -168zM307 545q0 -72 9.5 -127t29.5 -101 l488 592q-42 41 -93.5 61.5t-113.5 20.5q-151 0 -235.5 -117.5t-84.5 -328.5zM418 209q41 -42 92.5 -62t116.5 -20q147 0 233 116t86 316q0 79 -10 137.5t-31 104.5z" />
<glyph unicode="&#xf9;" horiz-adv-x="1298" d="M174 442v678h184v-671q0 -159 62 -238.5t186 -79.5q149 0 235.5 95t86.5 259v635h184v-1120h-184v172q-67 -102 -155.5 -151.5t-205.5 -49.5q-193 0 -293 120t-100 351zM293 1638h197l282 -374h-153zM637 1147z" />
<glyph unicode="&#xfa;" horiz-adv-x="1298" d="M174 442v678h184v-671q0 -159 62 -238.5t186 -79.5q149 0 235.5 95t86.5 259v635h184v-1120h-184v172q-67 -102 -155.5 -151.5t-205.5 -49.5q-193 0 -293 120t-100 351zM494 1262l280 376h199l-326 -376h-153zM637 1147z" />
<glyph unicode="&#xfb;" horiz-adv-x="1298" d="M174 442v678h184v-671q0 -159 62 -238.5t186 -79.5q149 0 235.5 95t86.5 259v635h184v-1120h-184v172q-67 -102 -155.5 -151.5t-205.5 -49.5q-193 0 -293 120t-100 351zM316 1262l245 376h148l245 -376h-139l-180 245l-180 -245h-139zM637 1147z" />
<glyph unicode="&#xfc;" horiz-adv-x="1298" d="M174 442v678h184v-671q0 -159 62 -238.5t186 -79.5q149 0 235.5 95t86.5 259v635h184v-1120h-184v172q-67 -102 -155.5 -151.5t-205.5 -49.5q-193 0 -293 120t-100 351zM338 1350v202h203v-202h-203zM637 1147zM729 1350v202h203v-202h-203z" />
<glyph unicode="&#xfd;" horiz-adv-x="1212" d="M61 1120h195l350 -876l350 876h195l-492 -1224q-78 -200 -152 -261t-198 -61h-147v154h108q76 0 118 36t93 170l33 84zM465 1262l280 376h199l-326 -376h-153z" />
<glyph unicode="&#xfe;" horiz-adv-x="1300" d="M186 -426v1982h185v-606q58 100 146.5 148.5t211.5 48.5q204 0 331.5 -162t127.5 -426t-127.5 -426t-331.5 -162q-123 0 -211.5 48.5t-146.5 148.5v-594h-185zM371 559q0 -203 83.5 -318.5t229.5 -115.5t229.5 115.5t83.5 318.5t-83.5 318.5t-229.5 115.5t-229.5 -115.5 t-83.5 -318.5z" />
<glyph unicode="&#xff;" horiz-adv-x="1212" d="M61 1120h195l350 -876l350 876h195l-492 -1224q-78 -200 -152 -261t-198 -61h-147v154h108q76 0 118 36t93 170l33 84zM309 1350v202h203v-202h-203zM700 1350v202h203v-202h-203z" />
<glyph unicode="&#x152;" horiz-adv-x="2191" d="M115 748q0 365 223.5 555t656.5 190h1047v-170h-742v-442h711v-170h-711v-541h760v-170h-1065q-433 0 -656.5 190t-223.5 558zM328 748q0 -289 160 -433.5t481 -144.5h129v1153h-129q-321 0 -481 -143.5t-160 -431.5z" />
<glyph unicode="&#x153;" horiz-adv-x="2095" d="M113 559q0 276 136.5 432t377.5 156q140 0 245.5 -55.5t171.5 -163.5q78 107 194 163t259 56q226 0 358 -145.5t132 -395.5v-90h-846q12 -190 114 -289.5t285 -99.5q106 0 206 26t198 78v-174q-100 -42 -204 -64t-210 -22q-160 0 -281 55t-202 164 q-71 -110 -175.5 -164.5t-244.5 -54.5q-241 0 -377.5 156.5t-136.5 431.5zM307 559q0 -201 85.5 -316.5t234.5 -115.5q147 0 233 116t86 316q0 199 -86 315.5t-233 116.5q-148 0 -234 -115.5t-86 -316.5zM1147 659l655 1q-2 152 -84 241.5t-219 89.5q-153 0 -245.5 -87 t-106.5 -245z" />
<glyph unicode="&#x178;" horiz-adv-x="1251" d="M-4 1493h217l414 -614l411 614h217l-528 -782v-711h-203v711zM330 1667v203h203v-203h-203zM721 1667v203h203v-203h-203z" />
<glyph unicode="&#x2c6;" horiz-adv-x="1024" d="M193 1262l245 376h148l245 -376h-139l-180 245l-180 -245h-139z" />
<glyph unicode="&#x2dc;" horiz-adv-x="1024" d="M182 1309q2 135 53 208.5t142 73.5q38 0 70 -14t69 -47l57 -55q22 -20 38.5 -29.5t29.5 -9.5q38 0 56 36.5t20 118.5h125q-2 -135 -53 -208.5t-142 -73.5q-38 0 -70 14t-69 47l-57 55q-22 20 -38.5 29.5t-29.5 9.5q-38 0 -56 -36.5t-20 -118.5h-125z" />
<glyph unicode="&#x2000;" horiz-adv-x="950" />
<glyph unicode="&#x2001;" horiz-adv-x="1901" />
<glyph unicode="&#x2002;" horiz-adv-x="950" />
<glyph unicode="&#x2003;" horiz-adv-x="1901" />
<glyph unicode="&#x2004;" horiz-adv-x="633" />
<glyph unicode="&#x2005;" horiz-adv-x="475" />
<glyph unicode="&#x2006;" horiz-adv-x="316" />
<glyph unicode="&#x2007;" horiz-adv-x="316" />
<glyph unicode="&#x2008;" horiz-adv-x="237" />
<glyph unicode="&#x2009;" horiz-adv-x="380" />
<glyph unicode="&#x200a;" horiz-adv-x="105" />
<glyph unicode="&#x2010;" horiz-adv-x="739" d="M100 479v164h539v-164h-539z" />
<glyph unicode="&#x2011;" horiz-adv-x="739" d="M100 479v164h539v-164h-539z" />
<glyph unicode="&#x2012;" horiz-adv-x="739" d="M100 479v164h539v-164h-539z" />
<glyph unicode="&#x2013;" horiz-adv-x="1024" d="M100 489v144h824v-144h-824z" />
<glyph unicode="&#x2014;" horiz-adv-x="2048" d="M100 489v144h1848v-144h-1848z" />
<glyph unicode="&#x2018;" horiz-adv-x="651" d="M174 1001v173l164 319h129l-82 -319v-173h-211z" />
<glyph unicode="&#x2019;" horiz-adv-x="651" d="M178 1022l82 319v152h211v-152l-164 -319h-129z" />
<glyph unicode="&#x201a;" horiz-adv-x="651" d="M174 -238l82 320v172h211v-172l-164 -320h-129z" />
<glyph unicode="&#x201c;" horiz-adv-x="1061" d="M174 1001v173l164 319h129l-82 -319v-173h-211zM584 1001v173l164 319h129l-82 -319v-173h-211z" />
<glyph unicode="&#x201d;" horiz-adv-x="1061" d="M174 1001l82 320v172h211v-172l-164 -320h-129zM584 1001l82 320v172h211v-172l-164 -320h-129z" />
<glyph unicode="&#x201e;" horiz-adv-x="1061" d="M174 -238l82 320v172h211v-172l-164 -320h-129zM584 -238l82 320v172h211v-172l-164 -320h-129z" />
<glyph unicode="&#x2022;" horiz-adv-x="1208" d="M307 762q0 124 86.5 209.5t212.5 85.5q124 0 209.5 -85.5t85.5 -209.5q0 -125 -86 -211t-211 -86t-211 86t-86 211z" />
<glyph unicode="&#x2026;" horiz-adv-x="2048" d="M236 0v254h213v-254h-213zM918 0v254h212v-254h-212zM1599 0v254h213v-254h-213z" />
<glyph unicode="&#x202f;" horiz-adv-x="380" />
<glyph unicode="&#x2039;" horiz-adv-x="819" d="M158 559v82l469 418v-191l-301 -268l301 -268v-191z" />
<glyph unicode="&#x203a;" horiz-adv-x="819" d="M193 141v191l301 268l-301 268v191l469 -418v-82z" />
<glyph unicode="&#x205f;" horiz-adv-x="475" />
<glyph unicode="&#x20ac;" d="M0 520l55 123h139q0 23 -0.5 46.5t-0.5 55.5q0 35 0.5 58.5t0.5 46.5h-194l55 123h156q40 257 195 402t391 145q98 0 190.5 -35.5t179.5 -106.5v-213q-91 105 -175.5 150t-186.5 45q-157 0 -258 -100t-133 -287h577l-55 -123h-538q-2 -24 -2.5 -47t-0.5 -58 q0 -32 0.5 -55t2.5 -47h446l-56 -123h-374q32 -187 133 -288t258 -101q102 0 186.5 45t175.5 150v-211q-89 -72 -181.5 -108t-188.5 -36q-237 0 -391.5 145t-194.5 404h-211z" />
<glyph unicode="&#x2122;" horiz-adv-x="2048" d="M295 1399v94h518v-94h-203v-484h-114v484h-201zM926 915v578h172l174 -256l164 256h170v-578h-113v484l-195 -303h-55l-203 303v-484h-114z" />
<glyph unicode="&#xe000;" horiz-adv-x="1120" d="M0 0v1120h1120v-1120h-1120z" />
</font>
</defs></svg> 